An Alternative Rcpp Wrapper of MeCab • gibasa
…
Usage

Tokenize sentences

res <- gibasa::tokenize(
  data.frame(
    doc_id = seq_along(gibasa::ginga[5:8]),
    text = gibasa::ginga[5:8]
  ),
  text,
  doc_id
)
res
#> # A tibble: 187 × 5
#>    doc_id sentence_id token_id token        feature                             
#>    <fct>        <int>    <int> <chr>        <chr>                               
#>  1 1                1        1 　           記号,空白,*,*,*,*,　,　,　          
#>  2 1                1        2 カムパネルラ 名詞,一般,*,*,*,*,*                 
#>  3 1                1        3 が           助詞,格助詞,一般,*,*,*,が,ガ,ガ     
#>  4 1                1        4 手           名詞,一般,*,*,*,*,手,テ,テ          
#>  5 1                1        5 を           助詞,格助詞,一般,*,*,*,を,ヲ,ヲ     
#>  6 1                1        6 あげ         動詞,自立,*,*,一段,連用形,あげる,ア…
#>  7 1                1        7 まし         助動詞,*,*,*,特殊・マス,連用形,ます…
#>  8 1                1        8 た           助動詞,*,*,*,特殊・タ,基本形,た,タ,…
#>  9 1                1        9 。           記号,句点,*,*,*,*,。,。,。          
#> 10 1                1       10 それ         名詞,代名詞,一般,*,*,*,それ,ソレ,ソ…
#> # ℹ 177 more rows

Prettify output

gibasa::prettify(res)
#> # A tibble: 187 × 13
#>    doc_id sentence_id token_id token        POS1   POS2  POS3  POS4  X5StageUse1
#>    <fct>        <int>    <int> <chr>        <chr>  <chr> <chr> <chr> <chr>      
#>  1 1                1        1 　           記号   空白  <NA>  <NA>  <NA>       
#>  2 1                1        2 カムパネルラ 名詞   一般  <NA>  <NA>  <NA>       
#>  3 1                1        3 が           助詞   格助… 一般  <NA>  <NA>       
#>  4 1                1        4 手           名詞   一般  <NA>  <NA>  <NA>       
#>  5 1                1        5 を           助詞   格助… 一般  <NA>  <NA>       
#>  6 1                1        6 あげ         動詞   自立  <NA>  <NA>  一段       
#>  7 1                1        7 まし         助動詞 <NA>  <NA>  <NA>  特殊・マス 
#>  8 1                1        8 た           助動詞 <NA>  <NA>  <NA>  特殊・タ   
#>  9 1                1        9 。           記号   句点  <NA>  <NA>  <NA>       
#> 10 1                1       10 それ         名詞   代名… 一般  <NA>  <NA>       
#> # ℹ 177 more rows
#> # ℹ 4 more variables: X5StageUse2 <chr>, Original <chr>, Yomi1 <chr>,
#> #   Yomi2 <chr>
gibasa::prettify(res, col_select = 1:3)
#> # A tibble: 187 × 7
#>    doc_id sentence_id token_id token        POS1   POS2   POS3 
#>    <fct>        <int>    <int> <chr>        <chr>  <chr>  <chr>
#>  1 1                1        1 　           記号   空白   <NA> 
#>  2 1                1        2 カムパネルラ 名詞   一般   <NA> 
#>  3 1                1        3 が           助詞   格助詞 一般 
#>  4 1                1        4 手           名詞   一般   <NA> 
#>  5 1                1        5 を           助詞   格助詞 一般 
#>  6 1                1        6 あげ         動詞   自立   <NA> 
#>  7 1                1        7 まし         助動詞 <NA>   <NA> 
#>  8 1                1        8 た           助動詞 <NA>   <NA> 
#>  9 1                1        9 。           記号   句点   <NA> 
#> 10 1                1       10 それ         名詞   代名詞 一般 
#> # ℹ 177 more rows
gibasa::prettify(res, col_select = c(1, 3, 5))
#> # A tibble: 187 × 7
#>    doc_id sentence_id token_id token        POS1   POS3  X5StageUse1
#>    <fct>        <int>    <int> <chr>        <chr>  <chr> <chr>      
#>  1 1                1        1 　           記号   <NA>  <NA>       
#>  2 1                1        2 カムパネルラ 名詞   <NA>  <NA>       
#>  3 1                1        3 が           助詞   一般  <NA>       
#>  4 1                1        4 手           名詞   <NA>  <NA>       
#>  5 1                1        5 を           助詞   一般  <NA>       
#>  6 1                1        6 あげ         動詞   <NA>  一段       
#>  7 1                1        7 まし         助動詞 <NA>  特殊・マス 
#>  8 1                1        8 た           助動詞 <NA>  特殊・タ   
#>  9 1                1        9 。           記号   <NA>  <NA>       
#> 10 1                1       10 それ         名詞   一般  <NA>       
#> # ℹ 177 more rows
gibasa::prettify(res, col_select = c("POS1", "Original"))
#> # A tibble: 187 × 6
#>    doc_id sentence_id token_id token        POS1   Original
#>    <fct>        <int>    <int> <chr>        <chr>  <chr>   
#>  1 1                1        1 　           記号   　      
#>  2 1                1        2 カムパネルラ 名詞   <NA>    
#>  3 1                1        3 が           助詞   が      
#>  4 1                1        4 手           名詞   手      
#>  5 1                1        5 を           助詞   を      
#>  6 1                1        6 あげ         動詞   あげる  
#>  7 1                1        7 まし         助動詞 ます    
#>  8 1                1        8 た           助動詞 た      
#>  9 1                1        9 。           記号   。      
#> 10 1                1       10 それ         名詞   それ    
#> # ℹ 177 more rows
…
