…
## Usage

### Tokenize sentences

``` r
res <- gibasa::tokenize(
  data.frame(
    doc_id = seq_along(audubon::polano[5:8]),
    text = audubon::polano[5:8]
  )
)
res
#> # A tibble: 385 × 5
#>    doc_id sentence_id token_id token    feature                                 
#>    <fct>        <int>    <int> <chr>    <chr>                                   
#>  1 1                1        1 その     連体詞,*,*,*,*,*,その,ソノ,ソノ         
#>  2 1                1        2 ころ     名詞,非自立,副詞可能,*,*,*,ころ,コロ,コ…
#>  3 1                1        3 わたくし 名詞,代名詞,一般,*,*,*,わたくし,ワタク… 
#>  4 1                1        4 は       助詞,係助詞,*,*,*,*,は,ハ,ワ            
#>  5 1                1        5 、       記号,読点,*,*,*,*,、,、,、              
#>  6 1                1        6 モリーオ 名詞,固有名詞,地域,一般,*,*,*           
#>  7 1                1        7 市       名詞,接尾,地域,*,*,*,市,シ,シ           
#>  8 1                1        8 の       助詞,連体化,*,*,*,*,の,ノ,ノ            
#>  9 1                1        9 博物     名詞,一般,*,*,*,*,博物,ハクブツ,ハクブツ
#> 10 1                1       10 局       名詞,接尾,一般,*,*,*,局,キョク,キョク   
#> # ℹ 375 more rows
```

### Prettify output

``` r
gibasa::prettify(res)
#> # A tibble: 385 × 13
#>    doc_id sentence_id token_id token    POS1   POS2     POS3  POS4  X5StageUse1
#>    <fct>        <int>    <int> <chr>    <chr>  <chr>    <chr> <chr> <chr>      
#>  1 1                1        1 その     連体詞 <NA>     <NA>  <NA>  <NA>       
#>  2 1                1        2 ころ     名詞   非自立   副詞… <NA>  <NA>       
#>  3 1                1        3 わたくし 名詞   代名詞   一般  <NA>  <NA>       
#>  4 1                1        4 は       助詞   係助詞   <NA>  <NA>  <NA>       
#>  5 1                1        5 、       記号   読点     <NA>  <NA>  <NA>       
#>  6 1                1        6 モリーオ 名詞   固有名詞 地域  一般  <NA>       
#>  7 1                1        7 市       名詞   接尾     地域  <NA>  <NA>       
#>  8 1                1        8 の       助詞   連体化   <NA>  <NA>  <NA>       
#>  9 1                1        9 博物     名詞   一般     <NA>  <NA>  <NA>       
#> 10 1                1       10 局       名詞   接尾     一般  <NA>  <NA>       
#> # ℹ 375 more rows
#> # ℹ 4 more variables: X5StageUse2 <chr>, Original <chr>, Yomi1 <chr>,
#> #   Yomi2 <chr>
gibasa::prettify(res, col_select = 1:3)
#> # A tibble: 385 × 7
#>    doc_id sentence_id token_id token    POS1   POS2     POS3    
#>    <fct>        <int>    <int> <chr>    <chr>  <chr>    <chr>   
#>  1 1                1        1 その     連体詞 <NA>     <NA>    
#>  2 1                1        2 ころ     名詞   非自立   副詞可能
#>  3 1                1        3 わたくし 名詞   代名詞   一般    
#>  4 1                1        4 は       助詞   係助詞   <NA>    
#>  5 1                1        5 、       記号   読点     <NA>    
#>  6 1                1        6 モリーオ 名詞   固有名詞 地域    
#>  7 1                1        7 市       名詞   接尾     地域    
#>  8 1                1        8 の       助詞   連体化   <NA>    
#>  9 1                1        9 博物     名詞   一般     <NA>    
#> 10 1                1       10 局       名詞   接尾     一般    
#> # ℹ 375 more rows
gibasa::prettify(res, col_select = c(1, 3, 5))
#> # A tibble: 385 × 7
#>    doc_id sentence_id token_id token    POS1   POS3     X5StageUse1
#>    <fct>        <int>    <int> <chr>    <chr>  <chr>    <chr>      
#>  1 1                1        1 その     連体詞 <NA>     <NA>       
#>  2 1                1        2 ころ     名詞   副詞可能 <NA>       
#>  3 1                1        3 わたくし 名詞   一般     <NA>       
#>  4 1                1        4 は       助詞   <NA>     <NA>       
#>  5 1                1        5 、       記号   <NA>     <NA>       
#>  6 1                1        6 モリーオ 名詞   地域     <NA>       
#>  7 1                1        7 市       名詞   地域     <NA>       
#>  8 1                1        8 の       助詞   <NA>     <NA>       
#>  9 1                1        9 博物     名詞   <NA>     <NA>       
#> 10 1                1       10 局       名詞   一般     <NA>       
#> # ℹ 375 more rows
gibasa::prettify(res, col_select = c("POS1", "Original"))
#> # A tibble: 385 × 6
#>    doc_id sentence_id token_id token    POS1   Original
#>    <fct>        <int>    <int> <chr>    <chr>  <chr>   
#>  1 1                1        1 その     連体詞 その    
#>  2 1                1        2 ころ     名詞   ころ    
#>  3 1                1        3 わたくし 名詞   わたくし
#>  4 1                1        4 は       助詞   は      
#>  5 1                1        5 、       記号   、      
#>  6 1                1        6 モリーオ 名詞   <NA>    
#>  7 1                1        7 市       名詞   市      
#>  8 1                1        8 の       助詞   の      
#>  9 1                1        9 博物     名詞   博物    
#> 10 1                1       10 局       名詞   局      
#> # ℹ 375 more rows
```
…
