…
tbl
#> # A tibble: 7,367 × 7
#>    file_path                       source time_stamp title text  category doc_id
#>    <chr>                           <chr>  <chr>      <chr> <chr> <fct>    <chr> 
#>  1 /tmp/RtmpOyw6am/text/dokujo-ts… http:… 2010-05-2… 友人代表… "友人代… dokujo-… 1     
#>  2 /tmp/RtmpOyw6am/text/dokujo-ts… http:… 2010-05-2… ネットで… "ネット… dokujo-… 2     
#>  3 /tmp/RtmpOyw6am/text/dokujo-ts… http:… 2010-05-2… 相次ぐ芸… "相次ぐ… dokujo-… 3     
#>  4 /tmp/RtmpOyw6am/text/dokujo-ts… http:… 2010-05-2… ムダな抵… "ムダな… dokujo-… 4     
#>  5 /tmp/RtmpOyw6am/text/dokujo-ts… http:… 2010-05-2… 税金を払… "税金を… dokujo-… 5     
#>  6 /tmp/RtmpOyw6am/text/dokujo-ts… http:… 2010-05-3… 読んでみ… "読んで… dokujo-… 6     
#>  7 /tmp/RtmpOyw6am/text/dokujo-ts… http:… 2010-05-2… 大人にな… "大人に… dokujo-… 7     
#>  8 /tmp/RtmpOyw6am/text/dokujo-ts… http:… 2010-05-2… 結婚して… "結婚し… dokujo-… 8     
#>  9 /tmp/RtmpOyw6am/text/dokujo-ts… http:… 2010-05-2… お肌に優… "お肌に… dokujo-… 9     
#> 10 /tmp/RtmpOyw6am/text/dokujo-ts… http:… 2010-05-3… 初回デー… "初回デ… dokujo-… 10    
#> # ℹ 7,357 more rows
```
…
toks
#> # A tibble: 3,932,690 × 6
#>    doc_id category       token_id token              pos      original    
#>    <fct>  <fct>             <int> <chr>              <chr>    <chr>       
#>  1 2736   livedoor-homme        1 インタビュー       サ変名詞 インタビュー
#>  2 2736   livedoor-homme        2 :                  サ変名詞 NA          
#>  3 2736   livedoor-homme        3 シーバスリーガル   未知語   NA          
#>  4 2736   livedoor-homme        4 マスターブレンダー 未知語   NA          
#>  5 2736   livedoor-homme        5 コリン             人名     コリン      
#>  6 2736   livedoor-homme        6 ・                 その他   ・          
#>  7 2736   livedoor-homme        7 スコット           人名     スコット    
#>  8 2736   livedoor-homme        8 プレミアム         名詞     プレミアム  
#>  9 2736   livedoor-homme        9 ウイスキー         名詞     ウイスキー  
#> 10 2736   livedoor-homme       10 として             その他   として      
#> # ℹ 3,932,680 more rows
```

## Tidy textからdfmへの変換

さて、実際にこういったトークンからさまざまな分析をするには、トークンを品詞などによって取捨選択しながら、分析したい単位ごとにグルーピングして集計する必要があります。

簡単に集計するだけであれば、次のようにdplyrの関数を使って集計することができます。こうした文書ID、単語と、単語の文書内頻度の3つ組のかたちをしたデータフレームは、summarized
textという呼び方をすることがあるようです。

``` r
toks |>
  dplyr::filter(!pos %in% c("その他", "タグ")) |>
  dplyr::count(doc_id, token) |>
  dplyr::arrange(dplyr::desc(n))
#> # A tibble: 1,037,325 × 3
#>    doc_id token            n
#>    <fct>  <chr>        <int>
#>  1 5674   /              607
#>  2 5674   ソフトバンク   508
#>  3 5189   /              204
#>  4 5074   ,              126
#>  5 5559   (              125
#>  6 5559   )              124
#>  7 5537   )              120
#>  8 5537   (              119
#>  9 1460   し             111
#> 10 5692   :              101
#> # ℹ 1,037,315 more rows
```
…
