Text Mining with quanteda and gibasa • gibasa
…
  tbl
}
#> Parsing dokujo-tsushin...
#> Parsing it-life-hack...
#> Parsing kaden-channel...
#> Parsing livedoor-homme...
#> Parsing movie-enter...
#> Parsing peachy...
#> Parsing smax...
#> Parsing sports-watch...
#> Parsing topic-news...
#> Done.
#> # A tibble: 7,376 × 6
#>    category       file_path                       source time_stamp body  doc_id
#>    <fct>          <chr>                           <chr>  <chr>      <chr> <chr> 
#>  1 dokujo-tsushin /tmp/RtmprO8VNu/text/dokujo-ts… http:… 2010-05-2… "友…  1     
#>  2 dokujo-tsushin /tmp/RtmprO8VNu/text/dokujo-ts… http:… 2010-05-2… "ネ…  2     
#>  3 dokujo-tsushin /tmp/RtmprO8VNu/text/dokujo-ts… http:… 2010-05-2… "相…  3     
#>  4 dokujo-tsushin /tmp/RtmprO8VNu/text/dokujo-ts… http:… 2010-05-2… "ム…  4     
#>  5 dokujo-tsushin /tmp/RtmprO8VNu/text/dokujo-ts… http:… 2010-05-2… "税…  5     
#>  6 dokujo-tsushin /tmp/RtmprO8VNu/text/dokujo-ts… http:… 2010-05-3… "読…  6     
#>  7 dokujo-tsushin /tmp/RtmprO8VNu/text/dokujo-ts… http:… 2010-05-2… "大…  7     
#>  8 dokujo-tsushin /tmp/RtmprO8VNu/text/dokujo-ts… http:… 2010-05-2… "結…  8     
#>  9 dokujo-tsushin /tmp/RtmprO8VNu/text/dokujo-ts… http:… 2010-05-2… "お…  9     
#> 10 dokujo-tsushin /tmp/RtmprO8VNu/text/dokujo-ts… http:… 2010-05-3… "初…  10    
#> # ℹ 7,366 more rows
…
toks
#> # A tibble: 3,915,857 × 6
#>    doc_id category       token_id token  pos      original
#>    <fct>  <fct>             <int> <chr>  <chr>    <chr>   
#>  1 2736   livedoor-homme        1 <      サ変名詞 NA      
#>  2 2736   livedoor-homme        2 コラム 名詞     コラム  
#>  3 2736   livedoor-homme        3 >      サ変名詞 NA      
#>  4 2736   livedoor-homme        4 名手   名詞     名手    
#>  5 2736   livedoor-homme        5 が     その他   が      
#>  6 2736   livedoor-homme        6 愛し   動詞     愛す    
#>  7 2736   livedoor-homme        7 た     その他   た      
#>  8 2736   livedoor-homme        8 パター 名詞     パター  
#>  9 2736   livedoor-homme        9 【     その他   【      
#> 10 2736   livedoor-homme       10 ゴルフ 名詞     ゴルフ  
#> # ℹ 3,915,847 more rows

Tidy textからdfmへの変換

さて、実際にこうしたトークンをいろいろと分析するには、トークンを品詞などによって取捨選択しながら、分析したい単位ごとにグルーピングして集計する必要があります。簡単に集計するだけであれば、次のようにdplyrの関数を使って集計することができます。こうした文書ID・単語と、単語の文書内頻度の3つ組のかたちをしたデータフレームは、summarized
textという呼び方をすることがあるようです。

toks |>
  dplyr::filter(!pos %in% c("その他", "タグ")) |>
  dplyr::count(doc_id, token) |>
  dplyr::arrange(dplyr::desc(n))
#> # A tibble: 1,035,532 × 3
#>    doc_id token            n
#>    <fct>  <chr>        <int>
#>  1 5681   /              607
#>  2 5681   ソフトバンク   508
#>  3 5196   /              204
#>  4 5081   ,              126
#>  5 5544   )              120
#>  6 5544   (              119
#>  7 1461   し             111
#>  8 5699   :              101
#>  9 5699   .               97
#> 10 5134   HTC             94
#> # ℹ 1,035,522 more rows
…
